[
  {
    "name": "InflationAllocation",
    "contractName": "InflationAllocation.sol",
    "address": "0x039314Fc0EE5552d868837517580444948388387"
  },
  {
    "name": "StateConnector",
    "contractName": "StateConnector.sol",
    "address": "0x1000000000000000000000000000000000000001"
  },
  {
    "name": "FlareDaemon",
    "contractName": "FlareDaemon.sol",
    "address": "0x1000000000000000000000000000000000000002"
  },
  {
    "name": "PriceSubmitter",
    "contractName": "PriceSubmitter.sol",
    "address": "0x1000000000000000000000000000000000000003"
  },
  {
    "name": "Inflation",
    "contractName": "Inflation.sol",
    "address": "0x87E80E90EACA1d458dfdf60a9d697e7E83aB02b2"
  },
  {
    "name": "Supply",
    "contractName": "Supply.sol",
    "address": "0x5059bA6272Fa598efAaCC9b6FCeFef7366980aD7"
  },
  {
    "name": "FtsoRewardManager",
    "contractName": "FtsoRewardManager.sol",
    "address": "0xc5738334b972745067fFa666040fdeADc66Cb925"
  },
  {
    "name": "CleanupBlockNumberManager",
    "contractName": "CleanupBlockNumberManager.sol",
    "address": "0x93764A73d3c575Df0f555b8527F004cEf4AE2079"
  },
  {
    "name": "FtsoRegistry",
    "contractName": "FtsoRegistry.sol",
    "address": "0x6D222fb4544ba230d4b90BA1BfC0A01A94E6cB23"
  },
  {
    "name": "VoterWhitelister",
    "contractName": "VoterWhitelister.sol",
    "address": "0xa76906EfBA6dFAe155FfC4c0eb36cDF0A28ae24D"
  },
  {
    "name": "FtsoManager",
    "contractName": "FtsoManager.sol",
    "address": "0xbfA12e4E1411B62EdA8B035d71735667422A6A9e"
  },
  {
    "name": "WNat",
    "contractName": "WNat.sol",
    "address": "0x02f0826ef6aD107Cfc861152B32B52fD11BaB9ED"
  },
  {
    "name": "FtsoXrp",
    "contractName": "Ftso.sol",
    "address": "0xA1a9B8aB5BB798EeE536A23669AD744DCF8537a3"
  },
  {
    "name": "FtsoLtc",
    "contractName": "Ftso.sol",
    "address": "0x157D6316475765F13348DfA897C503Af0161B232"
  },
  {
    "name": "FtsoXlm",
    "contractName": "Ftso.sol",
    "address": "0xDC2cFeEe7Da8Be3eEF13B9e05BB4235063d0eCc1"
  },
  {
    "name": "FtsoDoge",
    "contractName": "Ftso.sol",
    "address": "0xBc696A456E351C8a5f170135868a3850eB29135A"
  },
  {
    "name": "FtsoAda",
    "contractName": "Ftso.sol",
    "address": "0xCe7472A48754A2AFe34951c6F35f7BFE01bb8FeE"
  },
  {
    "name": "FtsoAlgo",
    "contractName": "Ftso.sol",
    "address": "0x2Ce1d8653BbCa3F636A63E35136f4e015f0b4647"
  },
  {
    "name": "FtsoBch",
    "contractName": "Ftso.sol",
    "address": "0x9dCda46Cb0589ec54384801905b2F79B65E93347"
  },
  {
    "name": "FtsoDgb",
    "contractName": "Ftso.sol",
    "address": "0xd47B92E53941b7f71AcA3cD6235C866c55b4f23a"
  },
  {
    "name": "FtsoBtc",
    "contractName": "Ftso.sol",
    "address": "0x20Fecb7b1Ff69C62BBA5Bb6aCD5a9743D11E246F"
  },
  {
    "name": "FtsoEth",
    "contractName": "Ftso.sol",
    "address": "0x3C028fE13a87229D5D56a5b234eDC0199794684e"
  },
  {
    "name": "FtsoFil",
    "contractName": "Ftso.sol",
    "address": "0x71c57de677222f5E9BB3a3134Eb27aEe8b50BD39"
  }
]
